<svg version="1.1"
	 id="Layer_1" xmlns:v="http://schemas.microsoft.com/visio/2003/SVGExtensions/" xmlns:ev="http://www.w3.org/2001/xml-events"
	 xmlns="http://www.w3.org/2000/svg" xmlns:xlink="http://www.w3.org/1999/xlink" x="0px" y="0px" width="127.86px"
	 height="54.955px" viewBox="18.24 18.143 127.86 54.955" enable-background="new 18.24 18.143 127.86 54.955" xml:space="preserve"
	>
		<linearGradient id="anim"  x1="0%" y1="100%">
      <stop offset="0%" stop-color="red" stop-opacity="1">
      		<animate attributeName="stop-color" 
      			values="red;rgba(255,0,0,0.3);red" dur="50ms" repeatCount="indefinite"/>
		</stop>
    </linearGradient>
    
    <filter id="shadow" >
    	<feGaussianBlur in="SourceAlpha" stdDeviation="4"></feGaussianBlur>
    	<feOffset dx="-2" dy="4" result="offsetblur"></feOffset>
    	<feFlood flood-color="#9afc8a"></feFlood>
    	<feComposite in2="offsetblur" operator="in"></feComposite>
    	
    	<feMerge>
    		<feMergeNode></feMergeNode>
    		<feMergeNode in="SourceGraphic"></feMergeNode>
    	</feMerge>
    </filter>
    
<g>
	<g>
		<g transform="translate(18.24,-33.1023)">
			<g>
				<path fill="url(#anim)"   d="M127.86,65.21v25.13c0,0.55-0.45,1-1,1h-10.91c-0.55,0-1,0.45-1,1v7.8c0,0.551-0.45,1-1,1h-7.92
					c-0.55,0-1,0.45-1,1v3.061c0,0.55-0.45,1-1,1H59.44c-0.55,0-1-0.45-1-1v-3.061c0-0.55-0.45-1-1-1H22.96c-0.55,0-1-0.449-1-1
					v-7.8c0-0.55-0.45-1-1-1H1c-0.55,0-1-0.45-1-1v-23.02c0-0.55,0.45-1,1-1h23.52c0.55,0,1-0.45,1-1v-8.21c0-0.55,0.45-1,1-1h0.76
					c0.55,0,1,0.45,1,1v2.35c0,0.55,0.45,1,1,1h21.75c0.55,0,1.24-0.38,1.521-0.85L57.19,52c0.29-0.47,0.96-0.8,1.5-0.75
					c0.54,0.06,0.99,0.1,0.99,0.1s0.01,0.01,0.02,0.02l-0.01-0.02l0.45,0.05v0.17c0-0.13,0.45-0.23,1-0.23h45.27c0.55,0,1,0.45,1,1
					v10.87c0,0.55,0.45,1,1,1h18.45C127.41,64.21,127.86,64.66,127.86,65.21z">
					
        </path>
			</g>
		</g>
	</g>
</g>
</svg>
