<?xml version="1.0" encoding="utf-8"?>
<!-- Generator: Adobe Illustrator 15.0.2, SVG Export Plug-In . SVG Version: 6.00 Build 0)  -->
<!DOCTYPE svg PUBLIC "-//W3C//DTD SVG 1.1//EN" "http://www.w3.org/Graphics/SVG/1.1/DTD/svg11.dtd">
<svg version="1.1" id="Layer_1" xmlns="http://www.w3.org/2000/svg" xmlns:xlink="http://www.w3.org/1999/xlink" x="0px" y="0px"
	 width="554.625px" height="71.301px" viewBox="0 0 554.625 71.301" enable-background="new 0 0 554.625 71.301"
	 xml:space="preserve">
<g>
	<path fill="#FFFFFF" d="M10.547,65.395l-4.852-9.492c5.952-2.015,10.71-6,14.273-11.953c2.672-4.453,4.008-8.367,4.008-11.742
		l0.07-15.961H6.258V4.997h31.359v20.672c0,4.969-0.821,9.891-2.461,14.766c-1.923,5.672-4.758,10.571-8.508,14.695
		C22.242,59.957,16.875,63.379,10.547,65.395z M42.539,3.872h13.852v19.195h4.359v11.25h-4.359v33.609H42.539V3.872z"/>
	<path fill="#FFFFFF" d="M86.062,19.762h13.078v8.859h23.625v10.266H73.758V28.622h12.305V19.762z M98.227,40.575
		c6.188,0,11.647,1.22,16.383,3.656c5.249,2.719,7.875,6.165,7.875,10.336c0,4.5-2.719,7.968-8.156,10.406
		c-4.5,2.015-9.891,3.023-16.172,3.023c-6.282,0-11.649-1.079-16.102-3.234c-5.298-2.579-7.945-6.142-7.945-10.688
		c0-4.265,2.672-7.664,8.016-10.195C86.766,41.677,92.132,40.575,98.227,40.575z M75.375,3.731h45.422v6.68
		c0,5.579-0.083,9.306-0.246,11.18c-0.165,1.875-0.481,3.586-0.949,5.133h-13.219c0.281-0.844,0.468-2.039,0.562-3.586
		c0.093-1.547,0.141-3.094,0.141-4.641v-4.148H75.375V3.731z M88.945,54.215c0,2.016,0.984,3.539,2.953,4.57
		c1.64,0.844,3.727,1.266,6.258,1.266c2.391,0,4.405-0.352,6.047-1.055c2.155-0.938,3.234-2.297,3.234-4.078
		c0-1.874-0.879-3.328-2.637-4.359c-1.758-1.03-3.927-1.547-6.504-1.547c-2.485,0-4.547,0.352-6.188,1.055
		C90,50.958,88.945,52.341,88.945,54.215z"/>
	<path fill="#FFFFFF" d="M173.039,42.754V3.872h12.797V17.09h5.133v9.844h-5.133v17.719h-8.156c2.858,1.125,5.015,2.696,6.469,4.711
		c1.266,1.782,1.898,3.633,1.898,5.555c0,3.702-2.579,6.866-7.734,9.492c-4.688,2.391-9.798,3.586-15.328,3.586
		c-5.532,0-10.524-0.821-14.977-2.461c-6.235-2.297-9.352-5.743-9.352-10.336v-0.633c0-4.171,2.261-7.406,6.785-9.703
		c4.523-2.296,10.441-3.445,17.754-3.445h0.633c-1.547-0.984-3.094-1.969-4.641-2.953c-2.579-1.874-4.781-4.078-6.609-6.609
		c-0.984,1.594-2.918,3.505-5.801,5.73c-2.883,2.227-5.59,3.832-8.121,4.816l-5.203-8.648c4.359-1.781,7.757-4.5,10.195-8.156
		c1.921-2.906,3.046-6,3.375-9.281h-9.352V5.559h32.273v10.758h-10.758c0.562,3.985,1.71,7.29,3.445,9.914
		c2.109,3.234,5.249,5.649,9.422,7.242l-4.781,8.016c0.608,0.095,1.593,0.281,2.953,0.562
		C171.585,42.333,172.522,42.568,173.039,42.754z M152.367,54.215c0,1.266,1.345,2.155,4.035,2.672
		c1.746,0.327,3.799,0.492,6.159,0.492h0.637c2.831,0,5.002-0.165,6.513-0.492c2.218-0.469,3.328-1.359,3.328-2.672
		c0-1.125-0.909-1.969-2.726-2.531c-1.817-0.562-4.52-0.844-8.106-0.844c-3.729,0-6.302,0.293-7.717,0.879
		C153.075,52.306,152.367,53.138,152.367,54.215z"/>
	<path fill="#FFFFFF" d="M235.266,4.504v56.742h-23.203c-4.266,0-6.938-0.622-8.016-1.863c-1.079-1.243-1.617-4.465-1.617-9.668
		V4.434h13.219v17.297h7.102V4.504H235.266z M215.648,50.911h7.102V32.489h-7.102V50.911z M239.062,3.731h13.57v64.195h-13.57V3.731
		z"/>
	<path fill="#FFFFFF" d="M305.859,65.395l-4.852-9.492c5.952-2.015,10.71-6,14.273-11.953c2.672-4.453,4.008-8.367,4.008-11.742
		l0.07-15.961H301.57V4.997h31.359v20.672c0,4.969-0.821,9.891-2.461,14.766c-1.923,5.672-4.758,10.571-8.508,14.695
		C317.554,59.957,312.188,63.379,305.859,65.395z M337.852,3.872h13.852v19.195h4.359v11.25h-4.359v33.609h-13.852V3.872z"/>
	<path fill="#FFFFFF" d="M383.414,18.075h32.906v9.984h-15.328v3.234h17.859v9.914h-51.117v-9.914h19.758v-3.234h-9.281
		c-2.719,0-4.735-0.538-6.047-1.617c-1.501-1.266-2.25-3.351-2.25-6.258V3.731h46.125v9.984h-32.625V18.075z M393.328,42.403
		c6.796,0,12.328,1.032,16.594,3.094c4.922,2.391,7.383,5.813,7.383,10.266c0,4.078-2.649,7.218-7.945,9.422
		c-4.5,1.874-9.868,2.812-16.102,2.812c-6.094,0-11.297-0.984-15.609-2.953c-5.11-2.345-7.664-5.649-7.664-9.914
		c0-4.453,2.461-7.78,7.383-9.984C381.445,43.317,386.765,42.403,393.328,42.403z M383.062,54.708c0,1.454,1.195,2.484,3.586,3.094
		c1.781,0.468,4.124,0.703,7.031,0.703c2.953,0,5.249-0.211,6.891-0.633c2.25-0.562,3.375-1.547,3.375-2.953
		c0-1.547-1.067-2.637-3.199-3.27c-2.134-0.633-4.535-0.949-7.207-0.949c-3.188,0-5.509,0.188-6.961,0.562
		C384.233,51.872,383.062,53.02,383.062,54.708z"/>
	<path fill="#FFFFFF" d="M468.141,3.731h12.586v48.305h-12.586v-5.203h-5.273v-6.117c-2.25,2.25-4.477,3.832-6.68,4.746
		c-2.204,0.914-4.735,1.371-7.594,1.371c-5.157,0-9.387-1.464-12.691-4.395c-3.305-2.929-4.957-6.574-4.957-10.934
		c0-3.75,1.241-6.914,3.727-9.492c0.562-0.562,2.132-1.733,4.711-3.516h-7.523V7.809h10.617V3.731h13.922v4.078h8.648v10.688h-7.102
		c1.266,0.469,2.343,1.102,3.234,1.898c0.749,0.657,1.406,1.477,1.969,2.461v-2.461h4.992V3.731z M435.164,48.239h12.375v8.859
		h34.172v10.828h-39.023c-2.953,0-4.899-0.352-5.836-1.055c-1.125-0.844-1.688-2.626-1.688-5.344V48.239z M442.688,31.223
		c0,1.735,0.562,3.259,1.688,4.57c1.125,1.313,2.507,1.969,4.148,1.969c1.64,0,3.011-0.644,4.113-1.934
		c1.101-1.289,1.652-2.823,1.652-4.605c0-1.781-0.527-3.351-1.582-4.711c-1.055-1.359-2.426-2.039-4.113-2.039
		c-1.735,0-3.153,0.68-4.254,2.039C443.238,27.873,442.688,29.442,442.688,31.223z M466.383,29.958v1.477
		c0,1.266-0.13,2.415-0.387,3.445c-0.258,1.032-0.645,1.969-1.16,2.812h3.305v-7.734H466.383z"/>
	<path fill="#FFFFFF" d="M507.164,31.926v-1.055c-3.751-0.984-6.375-2.203-7.875-3.656c-1.22-1.218-1.828-2.718-1.828-4.5
		c0-1.312,0.608-2.531,1.828-3.656c0.093-0.093,1.007-0.749,2.742-1.969h-6.469V7.317h11.109V3.872h13.148v3.445h10.828v9.773
		h-4.922c1.452,0.844,2.366,1.454,2.742,1.828c0.984,0.984,1.477,2.297,1.477,3.938c0,2.157-0.984,3.962-2.953,5.414
		c-1.688,1.22-3.892,2.086-6.609,2.602v1.055h11.039v9.914h-36.914v-9.914H507.164z M544.781,55.833
		c0,4.312-2.742,7.546-8.227,9.703c-4.125,1.64-8.696,2.461-13.711,2.461c-5.86,0-10.946-1.079-15.258-3.234
		c-4.969-2.485-7.453-5.86-7.453-10.125c0-3.656,2.414-6.655,7.242-9c4.265-2.062,9.187-3.094,14.766-3.094
		c5.766,0,10.851,1.125,15.258,3.375C542.32,48.45,544.781,51.754,544.781,55.833z M509.414,22.645c0,0.657,0.387,1.102,1.16,1.336
		c0.773,0.235,1.746,0.352,2.918,0.352c1.218,0,2.226-0.093,3.023-0.281c0.796-0.187,1.195-0.585,1.195-1.195
		c0-0.608-0.399-1.065-1.195-1.371c-0.798-0.304-1.758-0.457-2.883-0.457c-1.266,0-2.285,0.095-3.059,0.281
		C509.801,21.497,509.414,21.942,509.414,22.645z M513.211,55.481c0,0.984,1.03,1.781,3.094,2.391
		c2.062,0.608,4.219,0.914,6.469,0.914s4.277-0.235,6.082-0.703c1.804-0.469,2.707-1.243,2.707-2.32
		c0-1.312-1.266-2.273-3.797-2.883c-1.594-0.375-3.399-0.562-5.414-0.562c-2.345,0-4.454,0.258-6.328,0.773
		C514.148,53.607,513.211,54.403,513.211,55.481z M532.828,3.872h12.586V16.95h5.555v9.211h-5.555v17.508h-12.586V3.872z"/>
</g>
</svg>
